module gitlab.com/jarv/todosync

go 1.18

require (
	github.com/go-logr/logr v1.2.3
	github.com/go-logr/zapr v1.2.3
	github.com/xanzy/go-gitlab v0.63.0
	go.uber.org/zap v1.19.0
)

require (
	github.com/golang/protobuf v1.2.0 // indirect
	github.com/google/go-querystring v1.1.0 // indirect
	github.com/hashicorp/go-cleanhttp v0.5.1 // indirect
	github.com/hashicorp/go-retryablehttp v0.6.8 // indirect
	go.uber.org/atomic v1.7.0 // indirect
	go.uber.org/multierr v1.6.0 // indirect
	golang.org/x/net v0.0.0-20201021035429-f5854403a974 // indirect
	golang.org/x/oauth2 v0.0.0-20181106182150-f42d05182288 // indirect
	golang.org/x/time v0.0.0-20191024005414-555d28b269f0 // indirect
	google.golang.org/appengine v1.3.0 // indirect
)
